Working with Database Storage Backends in `rdflib` • rdflib
…
)
#>    user  system elapsed 
#>  17.899   9.056 133.143
df <- rdf_query(triplestore, "SELECT ?s ?p ?o WHERE{ ?s ?p ?o }")
#> Warning: 1391187 parsing failures.
#>     row col expected     actual         file
#> 1338850   o a double _:r1011167 literal data
#> 1338851   o a double _:r1011168 literal data
#> 1338852   o a double _:r1011169 literal data
#> 1338853   o a double _:r1011170 literal data
#> 1338854   o a double _:r1012106 literal data
#> ....... ... ........ .......... ............
#> See problems(...) for more details.
df
#> # A tibble: 6,398,744 x 3
#>    s          p                o
#>    <chr>      <chr>        <dbl>
#>  1 flights:1  flights:year  2013
#>  2 flights:2  flights:year  2013
#>  3 flights:3  flights:year  2013
#>  4 flights:4  flights:year  2013
#>  5 flights:5  flights:year  2013
#>  6 flights:6  flights:year  2013
#>  7 flights:7  flights:year  2013
#>  8 flights:8  flights:year  2013
#>  9 flights:9  flights:year  2013
#> 10 flights:10 flights:year  2013
#> # … with 6,398,734 more rows
…
